\select@language {spanish}
\contentsline {section}{\numberline {1}INTRODUCCI\'ON}{2}{section.1}
\contentsline {section}{\numberline {2}TECNOLOG\'IA ESPEC\'IFICA / INTENSIFICACI\'ON / ITINERARIO CURSADO POR EL ALUMNO}{3}{section.2}
\contentsline {section}{\numberline {3}OBJETIVOS}{5}{section.3}
\contentsline {section}{\numberline {4}M\'ETODO Y FASES DE TRABAJO}{6}{section.4}
\contentsline {section}{\numberline {5}MEDIOS QUE SE PRETENDEN UTILIZAR}{7}{section.5}
\contentsline {subsection}{\numberline {5.1}Medios Hardware}{7}{subsection.5.1}
\contentsline {subsection}{\numberline {5.2}Medios Software}{7}{subsection.5.2}
\contentsline {section}{\numberline {6}REFERENCIAS}{8}{section.6}
\contentsline {section}{\numberline {7}CONTRATO DE PROPIEDAD INTELECTUAL (si lo hubiera)}{8}{section.7}
