\relax 
\providecommand\hyper@newdestlabel[2]{}
\catcode `"\active 
\catcode `<\active 
\catcode `>\active 
\@nameuse{es@quoting}
\providecommand\HyperFirstAtBeginDocument{\AtBeginDocument}
\HyperFirstAtBeginDocument{\ifx\hyper@anchor\@undefined
\global\let\oldcontentsline\contentsline
\gdef\contentsline#1#2#3#4{\oldcontentsline{#1}{#2}{#3}}
\global\let\oldnewlabel\newlabel
\gdef\newlabel#1#2{\newlabelxx{#1}#2}
\gdef\newlabelxx#1#2#3#4#5#6{\oldnewlabel{#1}{{#2}{#3}}}
\AtEndDocument{\ifx\hyper@anchor\@undefined
\let\contentsline\oldcontentsline
\let\newlabel\oldnewlabel
\fi}
\fi}
\global\let\hyper@last\relax 
\gdef\HyperFirstAtBeginDocument#1{#1}
\providecommand\HyField@AuxAddToFields[1]{}
\providecommand\HyField@AuxAddToCoFields[2]{}
\select@language{spanish}
\@writefile{toc}{\select@language{spanish}}
\@writefile{lof}{\select@language{spanish}}
\@writefile{lot}{\select@language{spanish}}
\citation{causasTDAH}
\citation{manual}
\citation{economiafichas}
\@writefile{toc}{\contentsline {section}{\numberline {1}INTRODUCCI\'ON}{2}{section.1}}
\newlabel{Introducci\'on}{{1}{2}{INTRODUCCIÓN}{section.1}{}}
\@writefile{toc}{\contentsline {section}{\numberline {2}TECNOLOG\'IA ESPEC\'IFICA / INTENSIFICACI\'ON / ITINERARIO CURSADO POR EL ALUMNO}{3}{section.2}}
\@writefile{toc}{\contentsline {section}{\numberline {3}OBJETIVOS}{5}{section.3}}
\citation{scrum}
\@writefile{toc}{\contentsline {section}{\numberline {4}M\'ETODO Y FASES DE TRABAJO}{6}{section.4}}
\citation{sdkAndroid}
\citation{bitbu}
\citation{latex}
\citation{texmaker}
\@writefile{toc}{\contentsline {section}{\numberline {5}MEDIOS QUE SE PRETENDEN UTILIZAR}{7}{section.5}}
\@writefile{toc}{\contentsline {subsection}{\numberline {5.1}Medios Hardware}{7}{subsection.5.1}}
\@writefile{toc}{\contentsline {subsection}{\numberline {5.2}Medios Software}{7}{subsection.5.2}}
\bibstyle{acm}
\bibdata{ejemplo}
\bibcite{texmaker}{1}
\bibcite{economiafichas}{2}
\bibcite{causasTDAH}{3}
\bibcite{bitbu}{4}
\bibcite{latex}{5}
\bibcite{sdkAndroid}{6}
\bibcite{manual}{7}
\bibcite{scrum}{8}
\@writefile{toc}{\contentsline {section}{\numberline {6}REFERENCIAS}{8}{section.6}}
\@writefile{toc}{\contentsline {section}{\numberline {7}CONTRATO DE PROPIEDAD INTELECTUAL (si lo hubiera)}{8}{section.7}}
